Labour markets and unemployment
…
# We set a theme for the graphs
theme_set(theme_classic())

data <- 
  tibble(
    q = seq(1,120)
  )

data
## # A tibble: 120 × 1
##        q
##    <int>
##  1     1
##  2     2
##  3     3
##  4     4
##  5     5
##  6     6
##  7     7
##  8     8
##  9     9
## 10    10
## # … with 110 more rows
```
…
```r
data <-  
  data %>% 
  mutate(
    # Average cost function
    ac = 50/q + (.5*q),
    # Marginal cost function
    mc = q,
    # (Inverse) Demand function
    p = 120 - q
  )

data
## # A tibble: 120 × 4
##        q    ac    mc     p
##    <int> <dbl> <int> <dbl>
##  1     1  50.5     1   119
##  2     2  26       2   118
##  3     3  18.2     3   117
##  4     4  14.5     4   116
##  5     5  12.5     5   115
##  6     6  11.3     6   114
##  7     7  10.6     7   113
##  8     8  10.2     8   112
##  9     9  10.1     9   111
## 10    10  10      10   110
## # … with 110 more rows
```
…
Let's compute the revenue and marginal revenue:

```r
data <-  
  data %>% 
  mutate(
    # Revenue or profit
    revenue = p * q,
    # Marginal revenue Δ R / Δ Q
    mr = (revenue - dplyr::lag(revenue))/(1)
  ) 

data
## # A tibble: 120 × 6
##        q    ac    mc     p revenue    mr
##    <int> <dbl> <int> <dbl>   <dbl> <dbl>
##  1     1  50.5     1   119     119    NA
##  2     2  26       2   118     236   117
##  3     3  18.2     3   117     351   115
##  4     4  14.5     4   116     464   113
##  5     5  12.5     5   115     575   111
##  6     6  11.3     6   114     684   109
##  7     7  10.6     7   113     791   107
##  8     8  10.2     8   112     896   105
##  9     9  10.1     9   111     999   103
## 10    10  10      10   110    1100   101
## # … with 110 more rows
```
…
